<svg xmlns="http://www.w3.org/2000/svg" xmlns:xlink="http://www.w3.org/1999/xlink" x="0" y="0" viewBox="0 0 100 125" enable-background="new 0 0 100 100" xml:space="preserve">
  <path d="M85.7 14.1H12.3c-3.5 0-6.3 2.8-6.3 6.3v53.5c0 4.9 3.9 8.8 8.8 8.8h68.4c4.9 0 8.8-3.9 8.8-8.8V20.4c0-3.5-2.8-6.3-6.3-6.3zm-73.4 4.5h73.4c1 0 1.8.8 1.8 1.8v5.5h-77v-5.5c0-1 .8-1.8 1.8-1.8zm-1.8 55.3V30.3h17.3v47.9h-13c-2.4 0-4.3-1.9-4.3-4.3zm72.7 4.3h-51V30.3h55.3v43.5c0 2.5-1.9 4.4-4.3 4.4z"/>
  <circle cx="14" cy="22.1" r="1.7"/>
  <circle cx="20.1" cy="22.1" r="1.7"/>
  <circle cx="26.1" cy="22.1" r="1.7"/>
  <path d="M25.1 48.2H13.5c-.6 0-1.1.5-1.1 1.1s.5 1.1 1.1 1.1h11.6c.6 0 1.1-.5 1.1-1.1s-.5-1.1-1.1-1.1z"/>
  <path d="M13.5 46h10.7c.6 0 1.1-.5 1.1-1.1s-.5-1.1-1.1-1.1H13.5c-.6 0-1.1.5-1.1 1.1s.5 1.1 1.1 1.1z"/>
  <path d="M13.5 41.5h10.7c.6 0 1.1-.5 1.1-1.1s-.5-1.1-1.1-1.1H13.5c-.6 0-1.1.5-1.1 1.1s.5 1.1 1.1 1.1z"/>
  <path d="M13.5 37H22c.6 0 1.1-.5 1.1-1.1s-.5-1.1-1.1-1.1h-8.5c-.6 0-1.1.5-1.1 1.1s.5 1.1 1.1 1.1z"/>
  <path d="M20.6 66.5h-7.2c-.6 0-1.1.5-1.1 1.1s.5 1.1 1.1 1.1h7.2c.6 0 1.1-.5 1.1-1.1s-.5-1.1-1.1-1.1z"/>
  <path d="M24.2 62.1H13.5c-.6 0-1.1.5-1.1 1.1s.5 1.1 1.1 1.1h10.7c.6 0 1.1-.5 1.1-1.1s-.5-1.1-1.1-1.1z"/>
  <path d="M13.5 59.8h5.4c.6 0 1.1-.5 1.1-1.1s-.5-1.1-1.1-1.1h-5.4c-.6 0-1.1.5-1.1 1.1s.5 1.1 1.1 1.1z"/>
  <path d="M24.2 53.1H13.5c-.6 0-1.1.5-1.1 1.1s.5 1.1 1.1 1.1h10.7c.6 0 1.1-.5 1.1-1.1 0-.6-.5-1.1-1.1-1.1z"/>
  <path d="M50.1 44.3c-.9-.9-2.3-.9-3.2 0L40.2 51c-1.3 1.3-1.3 3.3 0 4.6l6.7 6.7c.4.4 1 .7 1.6.7s1.1-.2 1.6-.7c.9-.9.9-2.3 0-3.2l-5.9-5.9 5.9-5.9c.9-.7.9-2.1 0-3z"/>
  <path d="M63.7 41.9c-1.1-.5-2.4 0-3 1.1l-8.4 18.8c-.5 1.1 0 2.4 1.1 3 .3.1.6.2.9.2.9 0 1.7-.5 2-1.3l8.4-18.8c.6-1.1.1-2.5-1-3z"/>
  <path d="M70.1 44.3c-.9-.9-2.3-.9-3.2 0-.9.9-.9 2.3 0 3.2l5.9 5.9-5.9 5.9c-.9.9-.9 2.3 0 3.2.4.4 1 .7 1.6.7s1.1-.2 1.6-.7l6.7-6.7c1.3-1.3 1.3-3.3 0-4.6l-6.7-6.9z"/>
</svg>