<svg xmlns="http://www.w3.org/2000/svg" xmlns:xlink="http://www.w3.org/1999/xlink" width="64" height="64" x="0" y="0" viewBox="0 0 128 128" enable-background="new 0 0 128 128" xml:space="preserve">
  <path fill="#000000" d="M64.865 111.942c-2.168.07-4.029 1.96-4.065 4.126-.019 1.083.427 2.166 1.223 2.97.794.809 1.872 1.271 2.955 1.271h.008c1.085-.002 2.158-.462 2.948-1.262.792-.799 1.241-1.882 1.227-2.967-.023-2.243-1.972-4.138-4.296-4.138z"/>
  <path fill="#000000" d="M47.891 108.736c-2.262.006-4.103 1.882-4.104 4.188.003 2.278 1.768 4.11 4.022 4.171l.095.002h.012c2.275-.006 4.121-1.884 4.116-4.19-.006-2.272-1.812-4.103-4.141-4.171z"/>
  <path fill="#000000" d="M82.007 108.17c-1.113.002-2.154.44-2.929 1.233-.786.803-1.205 1.871-1.18 3.005.048 2.247 1.888 4.08 4.107 4.086h.019c1.113-.002 2.16-.443 2.944-1.241.792-.801 1.22-1.863 1.205-2.988-.03-2.226-1.892-4.062-4.166-4.095z"/>
  <path fill="#000000" d="M22.3 41.609c-.923-.541-2.104-.687-3.188-.398-1.094.296-2.027 1.006-2.564 1.954-.531.945-.659 2.108-.352 3.188.307 1.082 1.029 2.004 1.979 2.528.586.323 1.26.493 1.949.493 1.562 0 3.001-.832 3.769-2.197 1.005-1.92.276-4.47-1.593-5.568z"/>
  <path fill="#000000" d="M33.412 28.348c-1.931-1.087-4.46-.471-5.666 1.541-1.115 1.982-.388 4.514 1.622 5.645.631.354 1.341.541 2.052.541 1.472 0 2.817-.774 3.616-2.095 1.111-1.97.382-4.496-1.624-5.632z"/>
  <path fill="#000000" d="M17.072 58.295c-1.92-1.033-4.515-.305-5.588 1.581-.546.97-.676 2.097-.368 3.176.31 1.084 1.023 1.977 2.007 2.515.599.329 1.28.504 1.967.504 1.49 0 2.885-.805 3.649-2.113.547-.97.677-2.091.369-3.157-.313-1.076-1.035-1.965-2.036-2.506z"/>
  <path fill="#000000" d="M110.375 45.78c.356-1.079.276-2.249-.221-3.216-.497-.963-1.399-1.709-2.47-2.046-1.06-.338-2.247-.238-3.201.263-1.989 1.048-2.782 3.652-1.718 5.713.721 1.303 2.185 2.145 3.728 2.145.628 0 1.25-.143 1.798-.413.97-.48 1.731-1.371 2.084-2.446z"/>
  <path fill="#000000" d="M115.09 59.216c-1.009-1.954-3.614-2.774-5.608-1.749-2.017 1.044-2.82 3.487-1.817 5.59.702 1.362 2.107 2.207 3.665 2.207.666 0 1.334-.162 1.931-.469 2.027-1.042 2.853-3.448 1.829-5.579z"/>
  <path fill="#000000" d="M96.525 27.095c-1.058-.33-2.225-.224-3.205.294-1.966 1.044-2.75 3.539-1.741 5.578.512.99 1.378 1.715 2.436 2.041.396.124.807.186 1.222.186.685 0 1.372-.175 1.989-.507 1.979-1.068 2.769-3.544 1.751-5.538-.513-.991-1.383-1.72-2.452-2.054z"/>
  <path fill="#000000" d="M31.59 71.06H6.23c-2.524 0-4.586 2.054-4.586 4.586v31.953c0 2.531 2.062 4.593 4.586 4.593h25.36c2.531 0 4.593-2.062 4.593-4.593V75.646c0-2.532-2.062-4.586-4.593-4.586zm2.239 36.539c0 1.231-1.008 2.239-2.239 2.239H6.23c-1.231 0-2.231-1.008-2.231-2.239V75.646c0-1.231 1-2.231 2.231-2.231h25.36c1.231 0 2.239 1 2.239 2.231v31.953z"/>
  <g>
    <path fill="#000000" d="M26.245 97.289l-15.128-.011c-.173 0-.318.038-.451.121-.309.204-.485.431-.537.692-.026.134-.105.543.167.874.281.343.732.343.902.343l14.379.003.632-.003c.556-.008.952-.415.961-.992.009-.56-.354-.972-.925-1.027z"/>
    <path fill="#000000" d="M26.245 88.388l-15.13-.011c-.171 0-.316.038-.448.121-.31.201-.486.428-.539.692-.026.134-.105.543.169.876.282.341.731.341.9.341l14.377.002.634-.002c.556-.008.952-.415.961-.992.01-.562-.354-.974-.924-1.027z"/>
    <path fill="#000000" d="M11.197 81.505l14.377.002.634-.002c.556-.008.952-.415.961-.992.009-.561-.355-.974-.925-1.027l-15.134-.011c-.17 0-.313.038-.446.12-.309.204-.485.431-.537.692-.026.135-.105.544.167.874.284.344.734.344.903.344z"/>
  </g>
  <g>
    <path fill="#000000" d="M104.628 112.79l-1.249-2.749-.747-1.539c-.404-.83-.59-1.001-.628-1.031.01.011-.059-.004-.298-.004-.242 0-.564.028-.986.086-1.453.174-2.851.095-4.268-.025-1.233-.108-2.254-.617-2.958-1.473-.49-.579-1.057-1.618-.913-3.197.066-.685-.027-1.185-.332-1.79-.2-.393-.368-.832-.51-1.335l-.031-.136c-.136-.769-.287-1.606-.396-2.183-.676-.314-1.55-.889-2.005-1.931-.6-1.372-.155-2.674.232-3.534.235-.512.49-.983.736-1.434l.046-.086c.337-.603.623-1.13.797-1.623.005-.011.008-.022.012-.033v-1.579c-1.382-4.729-.381-9.114 2.994-12.989 3.276-3.766 8.866-6.106 14.587-6.106 2.612 0 5.143.491 7.316 1.419 7.498 3.192 11.601 10.83 9.976 18.573-.21 1.007-.519 1.995-.919 2.935-.45 1.058-.984 2.106-1.45 3.005-1.307 2.544-2.437 4.744-2.121 7.026.034.245.079.496.138.748l.033.245.091 1.837-17.147 8.903zm-2.922-8.159c1.66 0 2.505.638 3.475 2.625l.795 1.638 12.861-6.678c-.054-.258-.098-.516-.133-.768-.44-3.171 1.008-5.99 2.409-8.716.443-.857.949-1.849 1.361-2.816.327-.768.58-1.577.752-2.404 1.344-6.403-2.074-12.728-8.312-15.384-1.826-.78-3.971-1.192-6.204-1.192-4.924 0-9.693 1.966-12.447 5.132-2.853 3.277-3.585 6.843-2.236 10.901.335.977-.054 2.275-.235 2.786-.241.682-.59 1.334-.959 1.996l1.09 4.274c.102.396.444 2.315.567 3.006.086.295.178.536.29.754.551 1.096.743 2.123.626 3.34-.043.476.046.853.267 1.115.276.336.707.436 1.022.464.603.05 1.437.121 2.229.121.495 0 .965-.027 1.436-.083.532-.076.968-.111 1.346-.111z"/>
    <path fill="#000000" d="M101.191 90.342c-.836.02-1.354-.401-1.365-1.128-.006-.399-.178-.496-.501-.592-1.02-.305-1.412-.859-1.175-1.596.229-.711.853-.929 1.846-.642 1.417.409 2.836.811 4.25 1.229.734.217 1.081.664 1.028 1.274-.055.631-.508 1.006-1.278 1.096-.971.113-1.938.247-2.805.359z"/>
  </g>
  <path fill="#000000" d="M85.182 75.343c-.963-3.357-3.957-5.625-7.453-5.639h-.775c.161-2.959-.44-5.332-1.877-7.418-1.703-2.477-3.971-4.02-6.93-4.717-.719-.167-1.472-.251-2.254-.251-3.001 0-7.09 1.375-9.574 5.115-.977-.433-2.059-.67-3.196-.67-4.187 0-7.627 3.252-7.921 7.362-.488.244-.956.537-1.389.879-1.172.921-2.08 2.135-2.631 3.524-.9 2.268-.768 4.801.363 6.951 1.221 2.317 3.084 3.796 5.45 4.362 0 .025 6.746.056 10.784.088.003.017.002.035.005.052 2.976.028 10.347.052 14.681.072-.005.011-.007.023-.013.033 1.5.014 2.422.021 2.422.021.272 0 .551.007.83.007h.837c.614 0 1.089-.007 1.535-.021 2.352-.077 4.501-1.228 5.904-3.154 1.411-1.928 1.844-4.335 1.202-6.596zm-3.329 5.045c-.921 1.263-2.331 2.017-3.859 2.073-.419.014-.865.014-1.452.014H49.298c-2.512-.007-4.285-1.054-5.422-3.224-.768-1.465-.858-3.196-.244-4.752.384-.949 1.005-1.786 1.807-2.422l.084-.063c.384-.286.796-.53 1.228-.712.035-.014.14-.042.216-.063.244-.07.614-.174.956-.391-.084-.37-.126-.754-.126-1.151 0-2.931 2.387-5.318 5.325-5.318 1.472 0 2.798.6 3.761 1.57.419-.147.775-.454.963-.865.202-.433.426-.83.677-1.2 1.912-2.875 5.059-3.929 7.369-3.929.579 0 1.131.063 1.654.181 2.289.537 4.047 1.731 5.359 3.643 1.186 1.731 1.619 3.775 1.368 6.448l-.028.293c-.049.468.112.928.426 1.277.314.342.761.544 1.228.544h1.814c2.317.007 4.299 1.507 4.927 3.727.428 1.473.134 3.05-.787 4.32z"/>
  <path fill="#000000" d="M80.59 7.691H45.649c-2.355 0-3.339.977-3.339 3.318-.007 8.217-.007 16.434 0 24.643 0 2.32.949 3.283 3.247 3.283 4.379.007 8.765.007 13.144 0-.014.246-.035.492-.049.738-.049.724-.077 1.455-.176 2.172-.028.211-.077.408-.148.597-.211.64-.633 1.16-1.237 1.539-.225.141-.45.274-.675.415-.394.239-.794.471-1.181.717-.176.105-.344.267-.429.443-.134.288-.007.499.316.555.105.014.211 0 .316 0 5.103 0 10.206.007 15.302 0 .274 0 .633.098.71-.295.07-.351-.183-.548-.457-.71-.415-.246-.829-.499-1.244-.745-.155-.098-.309-.19-.464-.281-.64-.38-1.082-.879-1.328-1.504-.127-.302-.197-.64-.225-1.005-.056-.865-.134-1.736-.204-2.636h13.06c2.165 0 3.156-1.005 3.156-3.191V10.812c-.005-2.081-1.059-3.121-3.154-3.121zM64.571 36.58c-.323.569-.928.956-1.588.928-.654-.021-1.209-.394-1.504-.928-.148-.267-.232-.583-.232-.921.014-.991.808-1.799 1.778-1.806 1.005 0 1.792.843 1.771 1.898-.007.294-.091.583-.225.829zm15.067-4.26c-11.044-.02-22.087-.014-33.13-.014-1.146 0-1.18-.04-1.18-1.198V12.291c0-1.339.013-1.346 1.396-1.346 3.989-.006 25.949-.007 31.411-.007h1.362c1.166 0 1.22.047 1.22 1.171.007 6.364-.007 12.722.02 19.08.006.822-.23 1.131-1.099 1.131z"/>
</svg>